{
  "backoffice/v1/procedures/3":{
    "GET":{
      "codeResponse": "200",
      "responses": [
        {
          "statusCode": "200",
          "headers": {
            "response": {
              "x-afp-signature": "",
              "Ocp-Apim-Subscription-Key": "",
              "x-prima-signature": ""
            },
            "request": {
              "x-afp-signature": "",
              "Ocp-Apim-Subscription-Key": "",
              "x-prima-signature": ""
            }
          },
          "body": [
            {
              "pageNumber": 3,
              "numberOfElements": 10,
              "size": 10,
              "totalElements": 22,
              "totalPages": 3,
              "response": [
                {
                  "id": 20,
                  "registerDate": "2020-10-12",
                  "cuspp": "367967ÑTCTN1",
                  "processingStage": "Asesoria",
                  "requestType": "Jubilación y/o retiro de hasta el 95.5%",
                  "executive": "Jorge Carrion Neyra",
                  "status": "REGISTERED",
                  "atentionTime": "green"
                },
                {
                  "id": 21,
                  "registerDate": "2020-10-14",
                  "cuspp": "367967ÑTCTN1",
                  "processingStage": "Inicio de tramite",
                  "requestType": "Jubilación y/o retiro de hasta el 95.5%",
                  "executive": "Guillermo Perez Bedregal",
                  "status": "IN_PROCESS",
                  "atentionTime": "red"
                }
              ]
            }
          ]
        }

      ]
    }
  }
}
