{
  "backoffice/v1/procedures/2":{
    "GET":{
      "codeResponse": "200",
      "responses": [
        {
          "statusCode": "200",
          "headers": {
            "response": {
              "x-afp-signature": "",
              "Ocp-Apim-Subscription-Key": "",
              "x-prima-signature": ""
            },
            "request": {
              "x-afp-signature": "",
              "Ocp-Apim-Subscription-Key": "",
              "x-prima-signature": ""
            }
          },
          "body": [
            {
              "pageNumber": 2,
              "numberOfElements": 10,
              "size": 10,
              "totalElements": 22,
              "totalPages": 3,
              "response": [
                {
              "id": 10,
              "registerDate": "2020-10-12",
              "cuspp": "657967ÑTCTN9",
              "processingStage": "Asesoria",
              "requestType": "Jubilación y/o retiro de hasta el 95.5%",
              "executive": "Olga Nuñez Ore",
              "status": "REGISTERED",
              "atentionTime": "yellow"
            },
                {
                  "id": 11,
                  "registerDate": "2020-10-14",
                  "cuspp": "897967ÑTPON1",
                  "processingStage": "Inicio de tramite",
                  "requestType": "Jubilación y/o retiro de hasta el 95.5%",
                  "executive": "Sonia Prada Vilchez",
                  "status": "IN_PROCESS",
                  "atentionTime": "green"
                },
                {
                  "id": 12,
                  "registerDate": "2020-10-12",
                  "cuspp": "3",
                  "processingStage": "Asesoria",
                  "requestType": "Jubilación y/o retiro de hasta el 95.5%",
                  "executive": "Fredy Lima Rios",
                  "status": "REGISTERED",
                  "atentionTime": "green"
                },
                {
                  "id": 13,
                  "registerDate": "2020-10-14",
                  "cuspp": "367967ÑTCTN1",
                  "processingStage": "Inicio de tramite",
                  "requestType": "Jubilación y/o retiro de hasta el 95.5%",
                  "executive": "Esperanza Gutierrez Alvarez",
                  "status": "IN_PROCESS",
                  "atentionTime": "green"
                },
                {
                  "id": 14,
                  "registerDate": "2020-10-12",
                  "cuspp": "367967ÑTCTN1",
                  "processingStage": "Asesoria",
                  "requestType": "Jubilación y/o retiro de hasta el 95.5%",
                  "executive": "Carlos Nuñez Mori",
                  "status": "REGISTERED",
                  "atentionTime": "yellow"
                },
                {
                  "id": 15,
                  "registerDate": "2020-10-14",
                  "cuspp": "367967ÑTCTN1",
                  "processingStage": "Inicio de tramite",
                  "requestType": "Jubilación y/o retiro de hasta el 95.5%",
                  "executive": "Sonia Prada Valle",
                  "status": "IN_PROCESS",
                  "atentionTime": "red"
                },
                {
                  "id": 16,
                  "registerDate": "2020-10-12",
                  "cuspp": "367967ÑTCTN1",
                  "processingStage": "Asesoria",
                  "requestType": "Jubilación y/o retiro de hasta el 95.5%",
                  "executive": "Juan Riquelme Miranda",
                  "status": "REGISTERED",
                  "atentionTime": "yellow"
                },
                {
                  "id": 17,
                  "registerDate": "2020-10-14",
                  "cuspp": "367967ÑTCTN1",
                  "processingStage": "Inicio de tramite",
                  "requestType": "Jubilación y/o retiro de hasta el 95.5%",
                  "executive": "Georgina Rios Rios",
                  "status": "IN_PROCESS",
                  "atentionTime": "green"
                },
                {
                  "id": 18,
                  "registerDate": "2020-10-12",
                  "cuspp": "367967ÑTCTN1",
                  "processingStage": "Asesoria",
                  "requestType": "Jubilación y/o retiro de hasta el 95.5%",
                  "executive": "Victor Orillo Nuñez",
                  "status": "REGISTERED",
                  "atentionTime": "red"
                },
                {
                  "id": 19,
                  "registerDate": "2020-10-14",
                  "cuspp": "367967ÑTCTN1",
                  "processingStage": "Inicio de tramite",
                  "requestType": "Jubilación y/o retiro de hasta el 95.5%",
                  "executive": "Marco Uribe Bedoya",
                  "status": "IN_PROCESS",
                  "atentionTime": "green"
                }
              ]
            }
          ]
        }
      ]
    }

  }
}
